nro_cont_mst|loc_mst|sku|barra|	tip_cap|cantidad(3 decimales y ceros delante para completar)|fecha
---------------------------------------------------------------------------------------------
45271|335|20131845|2000201318452|01|00000000000010.000|20180611
45271|335|20131846|2000201318469|01|00000000000019.000|20180611
45271|335|20131847|2000201318476|01|00000000000046.000|20180611
45271|335|20131848|2000201318483|01|00000000000048.000|20180611




select s.nro_cont_stk, s.loc_stk, c.sku_cap,c.barra_cap,c.tip_cap,
IF(SUM( c.cant_cap )<0,CONCAT('-',REPEAT('0',18 - LENGTH( SUM( c.cant_cap ) ) ) , SUM( c.cant_cap )*-1 ),CONCAT( REPEAT('0',18 - LENGTH( SUM( c.cant_cap ) ) ) , SUM( c.cant_cap ) )),s.fec_cong_stk 
from stock s, capturas c where c.sku_cap=s.sku_stk group by c.sku_capc